<svg width="177" height="43" viewBox="0 0 177 43" fill="none" xmlns="http://www.w3.org/2000/svg">
<path fill-rule="evenodd" clip-rule="evenodd" d="M104.329 35.5113C111.626 35.5113 117.541 29.5961 117.541 22.2993C117.541 15.0025 111.626 9.0873 104.329 9.0873C97.0322 9.0873 91.117 15.0025 91.117 22.2993C91.117 29.5961 97.0322 35.5113 104.329 35.5113ZM104.329 32.138C109.763 32.138 114.168 27.733 114.168 22.2993C114.168 16.8655 109.763 12.4606 104.329 12.4606C98.8952 12.4606 94.4903 16.8655 94.4903 22.2993C94.4903 27.733 98.8952 32.138 104.329 32.138Z" fill="white"/>
<path d="M144.375 29.2949C145.133 29.857 145.29 30.9392 144.626 31.6086C142.232 34.0188 138.916 35.5113 135.251 35.5113C127.954 35.5113 122.039 29.5961 122.039 22.2993C122.039 15.0025 127.954 9.0873 135.251 9.0873C139.365 9.0873 143.041 10.9682 145.464 13.917C146.048 14.6283 145.814 15.6654 145.042 16.1668C144.253 16.6794 143.205 16.4324 142.577 15.7317C140.775 13.7238 138.16 12.4606 135.251 12.4606C129.817 12.4606 125.412 16.8655 125.412 22.2993C125.412 27.733 129.817 32.138 135.251 32.138C137.826 32.138 140.171 31.1483 141.924 29.5285C142.601 28.9035 143.635 28.746 144.375 29.2949Z" fill="white"/>
<path d="M170.954 35.5113C169.967 35.5343 167.156 35.5113 165.175 35.5343C164.407 35.522 163.753 35.5113 163.361 35.5113C156.065 35.5113 150.149 29.596 150.149 22.2993C150.149 15.0026 156.065 9.0873 163.361 9.0873C170.366 9.0873 176.097 14.5384 176.545 21.4299C176.563 21.5301 176.573 21.6317 176.573 21.7371V27.6403C176.573 28.5717 175.818 29.3269 174.887 29.3269C173.955 29.3269 173.2 28.5717 173.2 27.6403V22.5804L173.198 22.4936L173.2 22.2993C173.2 16.8655 168.795 12.4606 163.361 12.4606C157.928 12.4606 153.523 16.8655 153.523 22.2993C153.523 27.7331 157.928 32.138 163.361 32.138H171.794C172.726 32.138 173.481 32.8932 173.481 33.8246C173.481 34.7561 172.726 35.5113 171.794 35.5113H170.954Z" fill="white"/>
<path d="M76.0778 32.138L76.2183 32.1386C76.2335 32.1386 76.2486 32.1386 76.2638 32.1386C76.279 32.1386 76.2942 32.1385 76.3095 32.1385C76.4171 32.1382 76.5272 32.138 76.64 32.138C78.2488 32.138 79.4845 31.5586 80.4127 30.8427C81.3409 30.1269 81.805 29.2243 81.805 28.135C81.805 27.0145 81.31 26.1897 80.3199 25.6606C79.3298 25.1004 77.7983 24.5557 75.7254 24.0266C73.8381 23.5287 72.2911 23.0307 71.0845 22.5327C69.9088 22.0036 68.8878 21.2411 68.0215 20.2451C67.1861 19.218 66.7685 17.8797 66.7685 16.2302C66.7685 16.1739 66.767 16.1528 66.766 16.1373C66.7645 16.1161 66.7638 16.1054 66.7685 16.0297V15.8218C66.8683 14.6705 67.2789 13.632 67.9346 12.6821C68.7081 11.5616 69.8065 10.6746 71.2297 10.021C72.6219 9.39853 74.2444 9.0873 76.0698 9.0873C76.1193 9.0873 76.1688 9.08742 76.2182 9.08767C80.3328 9.08767 84.008 10.9682 86.4311 13.917C87.0156 14.6283 86.7818 15.6654 86.0097 16.1668C85.2202 16.6794 84.1727 16.4324 83.5441 15.7317C81.7428 13.7238 79.1281 12.4606 76.2183 12.4606H76.0778C76.0244 12.4607 75.992 12.4606 75.9373 12.4606C74.3284 12.4606 73.2253 13.04 72.2971 13.7558C71.6391 14.2633 71.2143 14.8647 71.0228 15.5598C70.9731 15.7401 70.9602 15.9279 70.9602 16.115V16.3961C70.9602 17.2364 71.2547 17.7708 71.7806 18.331C72.3376 18.8601 73.0182 19.2959 73.8226 19.6382C74.658 19.9494 75.8028 20.3074 77.2569 20.712C79.0823 21.21 80.5674 21.7079 81.7122 22.2059C82.8569 22.6728 83.8315 23.3886 84.6359 24.3534C85.4713 25.3183 85.9044 26.5788 85.9354 28.135C85.9354 29.5355 85.5487 30.796 84.7752 31.9165C84.0017 33.0369 82.9033 33.924 81.4801 34.5776C80.0879 35.2 78.4654 35.5113 76.64 35.5113C76.5456 35.5113 76.4515 35.5108 76.3576 35.5099L76.2184 35.5113C72.1038 35.5113 68.5678 33.6738 66.1447 30.7249C65.5602 30.0136 65.794 28.9765 66.5661 28.4752C67.3556 27.9626 68.4031 28.2095 69.0317 28.9102C70.8042 30.8861 73.2239 32.0984 76.0778 32.138Z" fill="white"/>
<path fill-rule="evenodd" clip-rule="evenodd" d="M5.45607 28.2298C2.58539 27.3593 0.49585 24.6923 0.49585 21.5373C0.49585 18.3923 2.57223 15.7322 5.42893 14.8532C8.22865 6.23221 16.3274 0 25.8818 0C35.423 0 43.5125 6.215 46.323 14.8175C49.2414 15.6582 51.376 18.3485 51.376 21.5373C51.376 24.7361 49.2281 27.4332 46.2959 28.265C43.4608 36.8247 35.3925 43 25.8818 43C16.3581 43 8.28068 36.8078 5.45607 28.2298ZM42.6727 28.5296H9.48007C12.2003 35.0112 18.6067 39.5635 26.0764 39.5635C33.546 39.5635 39.9524 35.0112 42.6727 28.5296ZM42.6428 14.545C39.9058 8.10109 33.5188 3.58191 26.0764 3.58191C18.6339 3.58191 12.2469 8.10109 9.50991 14.545H42.6428ZM3.4713 21.5374C3.4713 19.319 5.26971 17.5206 7.48815 17.5206H44.3837C46.6022 17.5206 48.4006 19.319 48.4006 21.5374C48.4006 23.7559 46.6022 25.5543 44.3837 25.5543H7.48815C5.2697 25.5543 3.4713 23.7559 3.4713 21.5374Z" fill="white"/>
</svg>
