<svg width="15" height="16" viewBox="0 0 15 16" fill="none" xmlns="http://www.w3.org/2000/svg">
<g id="Group">
<path id="Vector" d="M8.86004 2.20703C9.12055 2.2071 9.37444 2.28913 9.58574 2.44151C9.79704 2.59389 9.95504 2.80888 10.0374 3.05605L10.3744 4.06891H12.41C12.5746 4.06891 12.7325 4.1343 12.8489 4.25069C12.9653 4.36708 13.0306 4.52494 13.0306 4.68954C13.0306 4.85414 12.9653 5.01199 12.8489 5.12838C12.7325 5.24477 12.5746 5.31016 12.41 5.31016L12.4082 5.35423L11.8701 12.8905C11.8365 13.3601 11.6263 13.7995 11.2817 14.1203C10.9372 14.4411 10.4839 14.6195 10.0132 14.6196H4.87686C4.40609 14.6195 3.95281 14.4411 3.60828 14.1203C3.26374 13.7995 3.05353 13.3601 3.01995 12.8905L2.48186 5.35361C2.48074 5.33915 2.48012 5.32466 2.48 5.31016C2.3154 5.31016 2.15754 5.24477 2.04115 5.12838C1.92476 5.01199 1.85938 4.85414 1.85938 4.68954C1.85938 4.52494 1.92476 4.36708 2.04115 4.25069C2.15754 4.1343 2.3154 4.06891 2.48 4.06891H4.51566L4.85265 3.05605C4.93501 2.80878 5.09311 2.59371 5.30453 2.44133C5.51596 2.28894 5.76998 2.20697 6.0306 2.20703H8.86004ZM11.1669 5.31016H3.72312L4.2581 12.8017C4.26924 12.9583 4.33926 13.1048 4.45406 13.2117C4.56887 13.3187 4.71994 13.3782 4.87686 13.3783H10.0132C10.1701 13.3782 10.3212 13.3187 10.436 13.2117C10.5508 13.1048 10.6208 12.9583 10.6319 12.8017L11.1669 5.31016ZM6.20376 7.17204C6.35577 7.17206 6.50249 7.22787 6.61609 7.32888C6.72968 7.42989 6.80225 7.56909 6.82004 7.72005L6.82438 7.79267V10.8958C6.82421 11.054 6.76364 11.2061 6.65505 11.3212C6.54646 11.4362 6.39804 11.5054 6.24013 11.5147C6.08222 11.5239 5.92672 11.4726 5.80542 11.371C5.68412 11.2695 5.60616 11.1255 5.58748 10.9684L5.58313 10.8958V7.79267C5.58313 7.62807 5.64852 7.47021 5.76491 7.35382C5.8813 7.23743 6.03916 7.17204 6.20376 7.17204ZM8.68626 7.17204C8.85086 7.17204 9.00872 7.23743 9.12511 7.35382C9.2415 7.47021 9.30689 7.62807 9.30689 7.79267V10.8958C9.30689 11.0604 9.2415 11.2183 9.12511 11.3346C9.00872 11.451 8.85086 11.5164 8.68626 11.5164C8.52166 11.5164 8.3638 11.451 8.24741 11.3346C8.13102 11.2183 8.06564 11.0604 8.06564 10.8958V7.79267C8.06564 7.62807 8.13102 7.47021 8.24741 7.35382C8.3638 7.23743 8.52166 7.17204 8.68626 7.17204ZM8.86004 3.44828H6.02998L5.82331 4.06891H9.06671L8.86004 3.44828Z" fill="#DF2723"/>
</g>
</svg>
